{
	"interactionModel": {
		"languageModel": {
			"invocationName": "abas service demo zwei",
			"types": [
				{
					"name": "ABA_TASK_STATUS",
					"values": [
						{
							"id": null,
							"name": {
								"value": "in Bearbeitung"
							}
						},
						{
							"id": null,
							"name": {
								"value": "erledigt"
							}
						}
					]
				}
			],
			"intents": [
				{
					"name": "StartIntent",
					"samples": [
						"Hallo",
						"Hallo abas",
						"Von vorne",
						"bringe mich zum anfang",
						"starte von vorne",
						"neustart"
					]
				},
				{
					"name": "UnknownIntent",
					"samples": [
						"asdasdeyxyx",
						"qweqwewezrucvhb",
						"sdfyxvcqweqwe",
						"asdweterusdfgasdf",
						"yxcwezsdfaSDQWEQWE",
						"yxcyxcqwreasdasdxxr",
						"qwewerzhsdfqweq",
						"qweasdasd",
						"asdqwexcyxc",
						"asdasdqwe",
						"gfjrtu",
						"qwesdfsdsdfasdasd",
						"yxcyxcqwreasdasdxxr",
						"qwewerzhsdfqweq",
						"qweasdasd",
						"asdqwexcyxc",
						"asdasdqwe",
						"gfjrtu",
						"qwesdfsdsdfasdasd",
						"yxcyxcqwreasdasdxxr",
						"qwewerzhsdfqweq",
						"qweasdasd",
						"asdqwexcyxc",
						"asdasdqwe",
						"gfjrtu",
						"qwesdfsdsdfasdasd",
						"yxcyxcqwreasdasdxxr",
						"qwewerzhsdfqweq",
						"qweasdasd",
						"asdqwexcyxc",
						"asdasdqwe",
						"gfjrtu",
						"qwesdfsdsdfasdasd",
						"ssawqwexyxcsd",
						"rteuwerqweasdasdqwe",
						"rteuwerqweasdasdqweyxc",
						"rteuwerqweasdasdqweawes",
						"rteuwerqweasdasdqweasdqwe",
						"rteuwerqweasdasdqweqedsf",
						"rteuwerqweasdasdqwedfhg",
						"rteuwerqweasdasdqwexcv",
						"rteuwerqweasdasdqwenm",
						"rteuwerqweasdasdqwedfgewrt"
					]
				},
				{
					"name": "TaskIntent",
					"samples": [
						"Wie viele Serviceaufträge habe ich",
						"Wie viele Aufträge habe ich",
						"Welche Serviceaufträge habe ich",
						"Welche Auftäge habe ich",
						"Liste meine Serviceaufträge",
						"Liste alle meine Serviceaufträge",
						"Liste meine Aufträge",
						"Liste mir meine Serviceaufträge",
						"Liste mir meine Aufträge auf",
						"Liste mir meine Serviceaufträge auf",
						"Liste meine Aufträge auf",
						"Liste meine Serviceaufträge auf",
						"Liste mir alle Aufträge",
						"Liste mir alle Aufträge auf",
						"Liste mir alle Serviceaufträge",
						"Liste mir alle Serviceaufträge auf",
						"Ich möchte alle meine Aufträge sehen",
						"Ich möchte alle Aufträge sehen"
					]
				},
				{
					"name": "SelectedTask",
					"samples": [
						"Zeige mir den letzten davon",
						"Zeige mir den letzten",
						"Zeige mir den aktuellsten davon",
						"Zeige mir den aktuellsten",
						"Zeige mir den letzten Serviceauftrag",
						"Zeige mir den aktuellsten Serviceauftrag",
						"Zeige mir den Auftrag {taskid}",
						"Zeige mir den Auftrag mit der Nummer {taskid}",
						"Zeige mir den Serviceauftrag {taskid}",
						"Zeige mir den Serviceauftrag mit der Nummer {taskid}",
						"Zeige den letzten Auftrag",
						"Zeige den letzten",
						"Zeige den Auftrag {taskid}"
					],
					"slots": [
						{
							"name": "taskid",
							"type": "AMAZON.NUMBER"
						}
					]
				},
				{
					"name": "UpdateTask",
					"samples": [
						"Setze Status des Serviceauftrags mit der nummer {taskid} auf {taskstatus}",
						"Auftrag {taskid} auf {taskstatus} setzen",
						"Setze den Auftrag {taskid} auf {taskstatus}",
						"Setze den Auftrag auf {taskstatus}",
						"Setze diesen Auftrag auf {taskstatus}",
						"Ändere Status des Auftrags auf {taskstatus}",
						"Setze den Serviceauftrag {taskid} auf {taskstatus}",
						"Setze den Serviceauftrag auf {taskstatus}"
					],
					"slots": [
						{
							"name": "taskid",
							"type": "AMAZON.NUMBER"
						},
						{
							"name": "taskstatus",
							"type": "ABA_TASK_STATUS"
						}
					]
				},
				{
					"name": "AMAZON.StopIntent",
					"samples": [
						"stop"
					]
				},
				{
					"name": "AMAZON.YesIntent",
					"samples": []
				},
				{
					"name": "AMAZON.NoIntent",
					"samples": []
				},
				{
					"name": "AMAZON.CancelIntent",
					"samples": []
				},
				{
					"name": "AMAZON.HelpIntent",
					"samples": [
						"Helf mir weiter",
						"Hilf mir",
						"Bitte helf mir weiter",
						"Was kannst du",
						"Was kann dieser Skill",
						"Hilfe",
						"Ich weiß nicht weiter",
						"Was kann dieser Skill machen",
						"Ekläre mir wie dieser Skill funktioniert",
						"ich verstehe das nicht"
					]
				},
				{
					"name": "AMAZON.NavigateSettingsIntent",
					"samples": []
				},
				{
					"name": "AMAZON.ScrollUpIntent",
					"samples": []
				},
				{
					"name": "AMAZON.ScrollLeftIntent",
					"samples": []
				},
				{
					"name": "AMAZON.ScrollDownIntent",
					"samples": []
				},
				{
					"name": "AMAZON.ScrollRightIntent",
					"samples": []
				},
				{
					"name": "AMAZON.PreviousIntent",
					"samples": []
				},
				{
					"name": "AMAZON.PageDownIntent",
					"samples": []
				},
				{
					"name": "AMAZON.PageUpIntent",
					"samples": []
				},
				{
					"name": "AMAZON.NextIntent",
					"samples": []
				},
				{
					"name": "AMAZON.NavigateHomeIntent",
					"samples": []
				},
				{
					"name": "AMAZON.MoreIntent",
					"samples": []
				}
			]
		}
	}
}