[
	{
		"userId": "jovo-debugger-user",
		"userData": {
			"data": {}
		}
	},
	{
		"userId": "amzn1.ask.account.AGKTKKNCRUVKJYKCNQZ3RHY3L5PTOV2I6YIRZYV4FQ77ZXTVLW6F4H7QRTFGLHXDMSWKVUWO4XVPMSNVK5PUJR2J33XHWER7T5LSMCX7LYQK7WKG646LDPJ3DOQPPB7R2IK7VCA76YYA6TGW42MPH55C2CEHB5HHF7YJH3AUXPUCCVIFSNYPXUKPZNFQOMYONPZ3WRGEXNYWPXI",
		"userData": {
			"data": {}
		}
	},
	{
		"userId": "amzn1.ask.account.AEV4YBXR76MSUXM7I4VPNMDQ7RBTPA2BYENYNLG6DFIRZSXIL7I2G4GUONSXCLYLZSAM35735GXUTSW4BIQWIKWURC2I2OQXOBXP4PS2OW6XV6GVHSVZZ3OA2WLDXPQA5UDKHNMC4HCQP365B4E2DRIE42WTTC7GXSRGJKHCDAV4RXYBRFUQTFXNGSQLWMVDLKQTHD66ORC5GFI",
		"userData": {
			"data": {}
		}
	}
]